C:\TrramitesInternos\Source\Java\Services\BpmApiParent\BpmApiCanonical\src\main\java\co\com\soaint\dto\ProcessRequestDto.java
C:\TrramitesInternos\Source\Java\Services\BpmApiParent\BpmApiCanonical\src\main\java\co\com\soaint\dto\ContainerDto.java
C:\TrramitesInternos\Source\Java\Services\BpmApiParent\BpmApiCanonical\src\main\java\co\com\soaint\model\KieContainers.java
C:\TrramitesInternos\Source\Java\Services\BpmApiParent\BpmApiCanonical\src\main\java\co\com\soaint\dto\InstanceDto.java
C:\TrramitesInternos\Source\Java\Services\BpmApiParent\BpmApiCanonical\src\main\java\co\com\soaint\dto\RulesDto.java
C:\TrramitesInternos\Source\Java\Services\BpmApiParent\BpmApiCanonical\src\main\java\co\com\soaint\dto\ValueDto.java
C:\TrramitesInternos\Source\Java\Services\BpmApiParent\BpmApiCanonical\src\main\java\co\com\soaint\model\KieContainer.java
C:\TrramitesInternos\Source\Java\Services\BpmApiParent\BpmApiCanonical\src\main\java\co\com\soaint\model\Response.java
C:\TrramitesInternos\Source\Java\Services\BpmApiParent\BpmApiCanonical\src\main\java\co\com\soaint\model\TaskResponse.java
C:\TrramitesInternos\Source\Java\Services\BpmApiParent\BpmApiCanonical\src\main\java\co\com\soaint\model\KieProcess.java
C:\TrramitesInternos\Source\Java\Services\BpmApiParent\BpmApiCanonical\src\main\java\co\com\soaint\model\Timestamp.java
C:\TrramitesInternos\Source\Java\Services\BpmApiParent\BpmApiCanonical\src\main\java\co\com\soaint\model\ProcessesInstances.java
C:\TrramitesInternos\Source\Java\Services\BpmApiParent\BpmApiCanonical\src\main\java\co\com\soaint\dto\MessagesDto.java
C:\TrramitesInternos\Source\Java\Services\BpmApiParent\BpmApiCanonical\src\main\java\co\com\soaint\model\ConfigItem.java
C:\TrramitesInternos\Source\Java\Services\BpmApiParent\BpmApiCanonical\src\main\java\co\com\soaint\model\TaskSummary.java
C:\TrramitesInternos\Source\Java\Services\BpmApiParent\BpmApiCanonical\src\main\java\co\com\soaint\dto\DecisionDto.java
C:\TrramitesInternos\Source\Java\Services\BpmApiParent\BpmApiCanonical\src\main\java\co\com\soaint\dto\SignalDto.java
C:\TrramitesInternos\Source\Java\Services\BpmApiParent\BpmApiCanonical\src\main\java\co\com\soaint\model\KieProcesses.java
C:\TrramitesInternos\Source\Java\Services\BpmApiParent\BpmApiCanonical\src\main\java\co\com\soaint\dto\UserDto.java
C:\TrramitesInternos\Source\Java\Services\BpmApiParent\BpmApiCanonical\src\main\java\co\com\soaint\dto\ResponseDto.java
C:\TrramitesInternos\Source\Java\Services\BpmApiParent\BpmApiCanonical\src\main\java\co\com\soaint\dto\InputDto.java
C:\TrramitesInternos\Source\Java\Services\BpmApiParent\BpmApiCanonical\src\main\java\co\com\soaint\model\Result.java
C:\TrramitesInternos\Source\Java\Services\BpmApiParent\BpmApiCanonical\src\main\java\co\com\soaint\model\Scanner.java
C:\TrramitesInternos\Source\Java\Services\BpmApiParent\BpmApiCanonical\src\main\java\co\com\soaint\model\Model.java
C:\TrramitesInternos\Source\Java\Services\BpmApiParent\BpmApiCanonical\src\main\java\co\com\soaint\dto\ProcessResponseDto.java
C:\TrramitesInternos\Source\Java\Services\BpmApiParent\BpmApiCanonical\src\main\java\co\com\soaint\dto\ParametrosDto.java
C:\TrramitesInternos\Source\Java\Services\BpmApiParent\BpmApiCanonical\src\main\java\co\com\soaint\model\Message.java
C:\TrramitesInternos\Source\Java\Services\BpmApiParent\BpmApiCanonical\src\main\java\co\com\soaint\model\Release.java
C:\TrramitesInternos\Source\Java\Services\BpmApiParent\BpmApiCanonical\src\main\java\co\com\soaint\model\Decision.java
C:\TrramitesInternos\Source\Java\Services\BpmApiParent\BpmApiCanonical\src\main\java\co\com\soaint\model\Input.java
C:\TrramitesInternos\Source\Java\Services\BpmApiParent\BpmApiCanonical\src\main\java\co\com\soaint\model\DmnEvaluationResult.java
C:\TrramitesInternos\Source\Java\Services\BpmApiParent\BpmApiCanonical\src\main\java\co\com\soaint\dto\ProcessesDto.java
C:\TrramitesInternos\Source\Java\Services\BpmApiParent\BpmApiCanonical\src\main\java\co\com\soaint\model\InputdataTypeRef.java
C:\TrramitesInternos\Source\Java\Services\BpmApiParent\BpmApiCanonical\src\main\java\co\com\soaint\model\DmnModelInfoList.java
C:\TrramitesInternos\Source\Java\Services\BpmApiParent\BpmApiCanonical\src\main\java\co\com\soaint\dto\TaskDto.java
