D:\Repositories\TramitesInternos\tramitesinternos\Source\Java\SERVICES\canonical-model\src\main\java\co\com\soaint\internalprocedures\canonicalmodel\entities\holidayInformation\HolidayInformationDAO.java
D:\Repositories\TramitesInternos\tramitesinternos\Source\Java\SERVICES\canonical-model\src\main\java\co\com\soaint\internalprocedures\canonicalmodel\dto\historicalEmployeeProject\HistoricalEmployeeProjectDTO.java
D:\Repositories\TramitesInternos\tramitesinternos\Source\Java\SERVICES\canonical-model\src\main\java\co\com\soaint\internalprocedures\canonicalmodel\enums\constants\parameter\ParameterCONST.java
D:\Repositories\TramitesInternos\tramitesinternos\Source\Java\SERVICES\canonical-model\src\main\java\co\com\soaint\internalprocedures\canonicalmodel\dto\attachedDocument\AttachedDocumentDTO.java
D:\Repositories\TramitesInternos\tramitesinternos\Source\Java\SERVICES\canonical-model\src\main\java\co\com\soaint\internalprocedures\canonicalmodel\entities\attachedDocument\AttachedDocumentDAO.java
D:\Repositories\TramitesInternos\tramitesinternos\Source\Java\SERVICES\canonical-model\src\main\java\co\com\soaint\internalprocedures\canonicalmodel\entities\historicalEmployeeProject\HistoricalEmployeeProjectDAO.java
D:\Repositories\TramitesInternos\tramitesinternos\Source\Java\SERVICES\canonical-model\src\main\java\co\com\soaint\internalprocedures\canonicalmodel\dto\holidays\HolidaysDTO.java
D:\Repositories\TramitesInternos\tramitesinternos\Source\Java\SERVICES\canonical-model\src\main\java\co\com\soaint\internalprocedures\canonicalmodel\enums\endpoints\InternalProceduresEndpoints.java
D:\Repositories\TramitesInternos\tramitesinternos\Source\Java\SERVICES\canonical-model\src\main\java\co\com\soaint\internalprocedures\canonicalmodel\dto\project\ProjectDTO.java
D:\Repositories\TramitesInternos\tramitesinternos\Source\Java\SERVICES\canonical-model\src\main\java\co\com\soaint\internalprocedures\canonicalmodel\entities\managementProcessesHigherEntity\ManagementProcessesHigherEntityDAO.java
D:\Repositories\TramitesInternos\tramitesinternos\Source\Java\SERVICES\canonical-model\src\main\java\co\com\soaint\internalprocedures\canonicalmodel\entities\request\RequestDAO.java
D:\Repositories\TramitesInternos\tramitesinternos\Source\Java\SERVICES\canonical-model\src\main\java\co\com\soaint\internalprocedures\canonicalmodel\dto\requestDetail\RequestDetailDTO.java
D:\Repositories\TramitesInternos\tramitesinternos\Source\Java\SERVICES\canonical-model\src\main\java\co\com\soaint\internalprocedures\canonicalmodel\entities\parameter\ParameterDAO.java
D:\Repositories\TramitesInternos\tramitesinternos\Source\Java\SERVICES\canonical-model\src\main\java\co\com\soaint\internalprocedures\canonicalmodel\dto\requestManagement\RequestManagementDTO.java
D:\Repositories\TramitesInternos\tramitesinternos\Source\Java\SERVICES\canonical-model\src\main\java\co\com\soaint\internalprocedures\canonicalmodel\entities\holidayRequest\HolidayRequestDAO.java
D:\Repositories\TramitesInternos\tramitesinternos\Source\Java\SERVICES\canonical-model\src\main\java\co\com\soaint\internalprocedures\canonicalmodel\dto\request\RequestDTO.java
D:\Repositories\TramitesInternos\tramitesinternos\Source\Java\SERVICES\canonical-model\src\main\java\co\com\soaint\internalprocedures\canonicalmodel\entities\project\ProjectDAO.java
D:\Repositories\TramitesInternos\tramitesinternos\Source\Java\SERVICES\canonical-model\src\main\java\co\com\soaint\internalprocedures\canonicalmodel\entities\requestManagement\RequestManagementDAO.java
D:\Repositories\TramitesInternos\tramitesinternos\Source\Java\SERVICES\canonical-model\src\main\java\co\com\soaint\internalprocedures\canonicalmodel\dto\generic\GenericResponseDTO.java
D:\Repositories\TramitesInternos\tramitesinternos\Source\Java\SERVICES\canonical-model\src\main\java\co\com\soaint\internalprocedures\canonicalmodel\dto\certificate\CertificateDTO.java
D:\Repositories\TramitesInternos\tramitesinternos\Source\Java\SERVICES\canonical-model\src\main\java\co\com\soaint\internalprocedures\canonicalmodel\entities\requestDetail\RequestDetailDAO.java
D:\Repositories\TramitesInternos\tramitesinternos\Source\Java\SERVICES\canonical-model\src\main\java\co\com\soaint\internalprocedures\canonicalmodel\dto\employee\EmployeeDTO.java
D:\Repositories\TramitesInternos\tramitesinternos\Source\Java\SERVICES\canonical-model\src\main\java\co\com\soaint\internalprocedures\canonicalmodel\enums\constants\holidayInformation\HolidayInformationCONST.java
D:\Repositories\TramitesInternos\tramitesinternos\Source\Java\SERVICES\canonical-model\src\main\java\co\com\soaint\internalprocedures\canonicalmodel\dto\parameter\ParameterDTO.java
D:\Repositories\TramitesInternos\tramitesinternos\Source\Java\SERVICES\canonical-model\src\main\java\co\com\soaint\internalprocedures\canonicalmodel\entities\certificate\CertificateDAO.java
D:\Repositories\TramitesInternos\tramitesinternos\Source\Java\SERVICES\canonical-model\src\main\java\co\com\soaint\internalprocedures\canonicalmodel\dto\managementProcessesHigherEntity\ManagementProcessesHigherEntityDTO.java
D:\Repositories\TramitesInternos\tramitesinternos\Source\Java\SERVICES\canonical-model\src\main\java\co\com\soaint\internalprocedures\canonicalmodel\entities\holidays\HolidaysDAO.java
D:\Repositories\TramitesInternos\tramitesinternos\Source\Java\SERVICES\canonical-model\src\main\java\co\com\soaint\internalprocedures\canonicalmodel\dto\holidayInformation\HolidayInformationDTO.java
D:\Repositories\TramitesInternos\tramitesinternos\Source\Java\SERVICES\canonical-model\src\main\java\co\com\soaint\internalprocedures\canonicalmodel\enums\constants\employee\EmployeeCONST.java
D:\Repositories\TramitesInternos\tramitesinternos\Source\Java\SERVICES\canonical-model\src\main\java\co\com\soaint\internalprocedures\canonicalmodel\dto\generic\GenericRequestDTO.java
D:\Repositories\TramitesInternos\tramitesinternos\Source\Java\SERVICES\canonical-model\src\main\java\co\com\soaint\internalprocedures\canonicalmodel\entities\employee\EmployeeDAO.java
D:\Repositories\TramitesInternos\tramitesinternos\Source\Java\SERVICES\canonical-model\src\main\java\co\com\soaint\internalprocedures\canonicalmodel\dto\holidayRequest\HolidayRequestDTO.java
